A parseModel extractor function for the purposes of running I-GSCA code example — extract_parseModel • cSEM
…
# Structural Model
NetworkingBehavior ~ HonestyHumility + Emotionality + Extraversion + Agreeableness + Conscientiousness + OpennesstoExperience
Numberofjobinterviews ~ NetworkingBehavior
Numberofjoboffers ~ NetworkingBehavior
"

data("LeDang2022")

extract_parseModel(model = tutorial_igsca_model, data = LeDang2022, ind_domi_as_first = TRUE)
#> $z0
#> # A tibble: 773 × 62
#>      Honesty1   Honesty2   Honesty3 Honesty4 Honesty5 Honesty6 Honesty7 Honesty8
#>    <hvn_lbll> <hvn_lbll> <hvn_lbll> <hvn_lb> <hvn_lb> <hvn_lb> <hvn_lb> <hvn_lb>
#>  1          4          4          4        4        4        4        4        4
#>  2          3          3          5        3        5        5        5        5
#>  3          2          2          3        2        3        3        3        3
#>  4          1          1          2        1        2        2        2        2
#>  5          5          5          5        5        5        4        5        5
#>  6          4          4          3        4        3        3        3        3
#>  7          2          2          3        2        3        3        3        3
#>  8          2          2          3        2        3        3        3        3
#>  9          2          2          3        2        3        3        3        3
#> 10          4          4          4        4        4        4        4        4
#> # ℹ 763 more rows
#> # ℹ 54 more variables: Honesty9 <hvn_lbll>, Honesty10 <hvn_lbll>,
#> #   Emotion1 <hvn_lbll>, Emotion2 <hvn_lbll>, Emotion3 <hvn_lbll>,
#> #   Emotion4 <hvn_lbll>, Emotion5 <hvn_lbll>, Emotion6 <hvn_lbll>,
#> #   Emotion8 <hvn_lbll>, Emotion10 <hvn_lbll>, Extraver2 <hvn_lbll>,
#> #   Extraver3 <hvn_lbll>, Extraver4 <hvn_lbll>, Extraver5 <hvn_lbll>,
#> #   Extraver6 <hvn_lbll>, Extraver7 <hvn_lbll>, Extraver8 <hvn_lbll>, …
…
